stm32f3xx_hal_msp.c:49:6:HAL_MspInit	16	static
stm32f3xx_hal_msp.c:85:6:HAL_ADC_MspInit	40	static
stm32f3xx_hal_msp.c:123:6:HAL_ADC_MspDeInit	8	static
stm32f3xx_hal_msp.c:153:6:HAL_TIM_Base_MspInit	16	static
stm32f3xx_hal_msp.c:173:6:HAL_TIM_Base_MspDeInit	0	static
stm32f3xx_hal_msp.c:193:6:HAL_UART_MspInit	32	static
stm32f3xx_hal_msp.c:226:6:HAL_UART_MspDeInit	8	static
